{"_meta":{"success":true,"code":200,"message":"OK. Everything worked as expected.","totalCount":2229,"pageCount":112,"currentPage":1,"perPage":20,"rateLimit":{"limit":30,"remaining":29,"reset":2}},"result":[{"id":"13","first_name":"Cristina","last_name":"Torphy","gender":"male","dob":"1936-01-22","email":"little.kaleb@example.org","phone":"1-256-850-9891 x124","website":"http://www.hermann.com/","address":"83231 Johnathan Parks Apt. 359\nLake Estell, SD 85622","status":"active","_links":{"self":{"href":"https://gorest.co.in/public-api/users/13"},"edit":{"href":"https://gorest.co.in/public-api/users/13"},"avatar":{"href":"https://lorempixel.com/250/250/people/?74031"}}},{"id":"14","first_name":"Hellen","last_name":"Erdman","gender":"female","dob":"1965-08-03","email":"hagenes.kianna@example.net","phone":"+15234500951","website":"http://www.frami.com/at-placeat-id-ut-autem-quae-esse-eveniet","address":"67222 Hills Spur Suite 947\nSouth Aaronberg, NC 30378-0262","status":"active","_links":{"self":{"href":"https://gorest.co.in/public-api/users/14"},"edit":{"href":"https://gorest.co.in/public-api/users/14"},"avatar":{"href":"https://lorempixel.com/250/250/people/?10260"}}},{"id":"15","first_name":"Meda","last_name":"Jaskolski","gender":"female","dob":"1932-10-31","email":"sauer.don@example.net","phone":"627-398-3296 x4102","website":"http://www.volkman.com/sequi-quo-et-repellat-nulla-quis.html","address":"54692 Anderson Mount Apt. 803\nPort Buddyfurt, CA 56175-4774","status":"active","_links":{"self":{"href":"https://gorest.co.in/public-api/users/15"},"edit":{"href":"https://gorest.co.in/public-api/users/15"},"avatar":{"href":"https://lorempixel.com/250/250/people/?25194"}}},{"id":"16","first_name":"Alexandro","last_name":"Mayer","gender":"male","dob":"1976-01-24","email":"thurman91@example.com","phone":"356.451.1244","website":"http://www.hammes.com/ea-numquam-qui-quo-dolorem-et-sed-voluptatem","address":"2053 Marquardt Flats\nSisterfort, NE 62624-2556","status":"active","_links":{"self":{"href":"https://gorest.co.in/public-api/users/16"},"edit":{"href":"https://gorest.co.in/public-api/users/16"},"avatar":{"href":"https://lorempixel.com/250/250/people/?46829"}}},{"id":"17","first_name":"Jacey","last_name":"Hane","gender":"male","dob":"1945-08-11","email":"flavie.mcdermott@example.org","phone":"510.266.2554 x017","website":"http://haley.biz/","address":"22438 Emmalee Manors Apt. 708\nWebsterberg, ID 09046-5371","status":"active","_links":{"self":{"href":"https://gorest.co.in/public-api/users/17"},"edit":{"href":"https://gorest.co.in/public-api/users/17"},"avatar":{"href":"https://lorempixel.com/250/250/people/?16018"}}},{"id":"18","first_name":"Rosalinda","last_name":"Harris","gender":"female","dob":"2016-08-13","email":"andy63@example.com","phone":"(653) 929-9600 x10327","website":"http://bernier.com/eum-temporibus-officia-quos","address":"2988 Champlin Track Apt. 407\nCorwinborough, AK 82553","status":"active","_links":{"self":{"href":"https://gorest.co.in/public-api/users/18"},"edit":{"href":"https://gorest.co.in/public-api/users/18"},"avatar":{"href":"https://lorempixel.com/250/250/people/?76276"}}},{"id":"20","first_name":"Ava","last_name":"McCullough","gender":"female","dob":"1984-02-28","email":"homenick.norberto@example.net","phone":"557-606-9383 x304","website":"http://www.stanton.com/enim-quis-placeat-fugiat-perspiciatis-aliquam-explicabo-ratione","address":"6683 Johnston Keys\nSouth Beatriceton, IN 17648","status":"inactive","_links":{"self":{"href":"https://gorest.co.in/public-api/users/20"},"edit":{"href":"https://gorest.co.in/public-api/users/20"},"avatar":{"href":"https://lorempixel.com/250/250/people/?91282"}}},{"id":"22","first_name":"Armand","last_name":"Bernhard","gender":"male","dob":"1935-04-15","email":"chris12@example.org","phone":"1-983-415-6033","website":"https://www.lynch.org/recusandae-nam-ipsum-placeat-numquam-quo-dolor","address":"497 Jaiden Island\nGeneralborough, OK 85114","status":"inactive","_links":{"self":{"href":"https://gorest.co.in/public-api/users/22"},"edit":{"href":"https://gorest.co.in/public-api/users/22"},"avatar":{"href":"https://lorempixel.com/250/250/people/?94347"}}},{"id":"23","first_name":"Suzanne","last_name":"Tromp","gender":"female","dob":"1997-04-02","email":"trantow.dorothea@example.org","phone":"+1 (820) 910-0873","website":"http://www.kreiger.com/","address":"257 Johnston Squares Suite 004\nKathleenfort, AK 27279-1458","status":"active","_links":{"self":{"href":"https://gorest.co.in/public-api/users/23"},"edit":{"href":"https://gorest.co.in/public-api/users/23"},"avatar":{"href":"https://lorempixel.com/250/250/people/?42189"}}},{"id":"24","first_name":"Madeline","last_name":"Brekke","gender":"female","dob":"1989-09-08","email":"boyer.terrell@example.com","phone":"1-782-395-7167","website":"http://www.okuneva.com/provident-sunt-vel-et-aliquid","address":"641 Trantow Ridges\nPort Chaseton, VA 76907","status":"active","_links":{"self":{"href":"https://gorest.co.in/public-api/users/24"},"edit":{"href":"https://gorest.co.in/public-api/users/24"},"avatar":{"href":"https://lorempixel.com/250/250/people/?43561"}}},{"id":"25","first_name":"Alexanne","last_name":"Lebsack","gender":"female","dob":"2011-09-21","email":"boyle.darrick@example.com","phone":"496-681-2880 x98384","website":"http://swaniawski.com/error-autem-iste-et-beatae-aspernatur-error-modi-ea","address":"419 Von Hills\nRodriguezland, NC 68656-8324","status":"active","_links":{"self":{"href":"https://gorest.co.in/public-api/users/25"},"edit":{"href":"https://gorest.co.in/public-api/users/25"},"avatar":{"href":"https://lorempixel.com/250/250/people/?86044"}}},{"id":"26","first_name":"Lorine","last_name":"Huels","gender":"female","dob":"2005-09-08","email":"spowlowski@example.net","phone":"(903) 902-5821","website":"https://www.pollich.biz/similique-ipsam-ad-sapiente","address":"198 Arvid Pike\nGusikowskibury, NV 32018-8540","status":"active","_links":{"self":{"href":"https://gorest.co.in/public-api/users/26"},"edit":{"href":"https://gorest.co.in/public-api/users/26"},"avatar":{"href":"https://lorempixel.com/250/250/people/?25556"}}},{"id":"27","first_name":"Joy","last_name":"Grady","gender":"female","dob":"1935-09-12","email":"jaunita.glover@example.org","phone":"1-642-593-0349","website":"http://www.eichmann.com/eius-animi-est-dolores-maxime","address":"6715 Hollie Common Apt. 267\nMoisesview, DE 77887-9292","status":"active","_links":{"self":{"href":"https://gorest.co.in/public-api/users/27"},"edit":{"href":"https://gorest.co.in/public-api/users/27"},"avatar":{"href":"https://lorempixel.com/250/250/people/?71586"}}},{"id":"28","first_name":"Howell","last_name":"Leannon","gender":"male","dob":"1927-07-02","email":"rohan.kieran@example.com","phone":"+15035632902","website":"http://www.koelpin.info/quisquam-sed-laudantium-fuga-hic.html","address":"9534 Elouise Trail Apt. 683\nWest Emmaberg, KS 93516","status":"active","_links":{"self":{"href":"https://gorest.co.in/public-api/users/28"},"edit":{"href":"https://gorest.co.in/public-api/users/28"},"avatar":{"href":"https://lorempixel.com/250/250/people/?42100"}}},{"id":"29","first_name":"Elsie","last_name":"Kozey","gender":"female","dob":"1957-07-30","email":"nitzsche.westley@example.com","phone":"9090.882.9090","website":"http://gutmann.biz/corrupti-saepe-magnam-nemo-quia-dolore","address":"8831 Bradley Square\nSchmelermouth, VA 77627","status":"active","_links":{"self":{"href":"https://gorest.co.in/public-api/users/29"},"edit":{"href":"https://gorest.co.in/public-api/users/29"},"avatar":{"href":"https://lorempixel.com/250/250/people/?49904"}}},{"id":"30","first_name":"Mac","last_name":"Cummings","gender":"male","dob":"1931-09-11","email":"wlang@example.net","phone":"1-412-543-3884","website":"http://connelly.org/","address":"5671 Friesen Cliffs\nWest Kayleeside, MI 02526-8775","status":"active","_links":{"self":{"href":"https://gorest.co.in/public-api/users/30"},"edit":{"href":"https://gorest.co.in/public-api/users/30"},"avatar":{"href":"https://lorempixel.com/250/250/people/?15792"}}},{"id":"31","first_name":"Candice","last_name":"Daniel","gender":"female","dob":"2004-04-08","email":"fermin.lueilwitz@example.org","phone":"(450) 739-7215 x814","website":"http://goldner.com/","address":"43175 Willms Falls Apt. 644\nPort Lavern, AR 39082","status":"inactive","_links":{"self":{"href":"https://gorest.co.in/public-api/users/31"},"edit":{"href":"https://gorest.co.in/public-api/users/31"},"avatar":{"href":"https://lorempixel.com/250/250/people/?93276"}}},{"id":"32","first_name":"Eli","last_name":"Stamm","gender":"male","dob":"1958-02-22","email":"celia.carroll@example.org","phone":"625-308-3113 x18131","website":"http://www.friesen.biz/soluta-eum-cum-eaque-voluptatem-eligendi-repellat","address":"96568 Niko Terrace\nYadiraland, VA 48710","status":"inactive","_links":{"self":{"href":"https://gorest.co.in/public-api/users/32"},"edit":{"href":"https://gorest.co.in/public-api/users/32"},"avatar":{"href":"https://lorempixel.com/250/250/people/?27788"}}},{"id":"33","first_name":"Kaley","last_name":"Schamberger","gender":"male","dob":"1970-12-21","email":"helmer21@example.com","phone":"792.817.7550 x74197","website":"http://brown.net/tenetur-ipsum-debitis-doloremque-explicabo-aut-enim-distinctio.html","address":"288 Kaia Brooks Suite 905\nDaphneyburgh, VT 97303","status":"inactive","_links":{"self":{"href":"https://gorest.co.in/public-api/users/33"},"edit":{"href":"https://gorest.co.in/public-api/users/33"},"avatar":{"href":"https://lorempixel.com/250/250/people/?76345"}}},{"id":"34","first_name":"Dedric","last_name":"Feil","gender":"male","dob":"1963-09-24","email":"eulalia.nicolas@example.com","phone":"1-816-894-6163 x485","website":"http://sanford.com/","address":"2707 Gulgowski Roads\nWilkinsonfurt, AK 58385","status":"inactive","_links":{"self":{"href":"https://gorest.co.in/public-api/users/34"},"edit":{"href":"https://gorest.co.in/public-api/users/34"},"avatar":{"href":"https://lorempixel.com/250/250/people/?70404"}}}]}